<svg width="42" height="42" viewBox="0 0 42 42" fill="none" xmlns="http://www.w3.org/2000/svg">
<g clip-path="url(#clip0_8879_2176)">
<path d="M14.8272 18.9513C15.2561 17.6537 16.0838 16.5247 17.1923 15.7253C18.3008 14.926 19.6334 14.4971 21.0001 14.4999C22.5492 14.4999 23.9499 15.0499 25.0499 15.9501L28.2509 12.75C26.3002 11.0496 23.8005 10 21.0001 10C16.6642 10 12.9316 12.4732 11.1367 16.0958L14.8272 18.9513Z" fill="#EA4335"/>
<path d="M24.7032 26.5119C23.704 27.1563 22.4354 27.5001 20.9999 27.5001C19.6387 27.5029 18.3111 27.0774 17.2051 26.284C16.0991 25.4905 15.2707 24.3693 14.8371 23.079L11.1338 25.8904C12.0424 27.7295 13.4486 29.2769 15.1926 30.3569C16.9366 31.4369 18.9486 32.0061 20.9999 32C23.6885 32 26.257 31.0439 28.181 29.25L24.7041 26.5119H24.7032Z" fill="#34A853"/>
<path d="M28.1812 29.25C30.1932 27.3727 31.4995 24.5787 31.4995 21C31.4995 20.3492 31.3996 19.6498 31.2502 18.9999H21V23.2505H26.8997C26.6091 24.6795 25.8272 25.786 24.7043 26.512L28.1812 29.25Z" fill="#4A90E2"/>
<path d="M14.8374 23.079C14.6131 22.4088 14.4992 21.7067 14.5 21C14.5 20.2832 14.6146 19.5947 14.8273 18.9512L11.1368 16.0958C10.3818 17.62 9.99259 19.2991 10.0001 21C10.0001 22.76 10.408 24.4192 11.134 25.8904L14.8374 23.079Z" fill="#FBBC05"/>
</g>
<g clip-path="url(#clip1_8879_2176)">
<path d="M14.8272 18.9513C15.2561 17.6537 16.0838 16.5247 17.1923 15.7253C18.3008 14.926 19.6334 14.4971 21.0001 14.4999C22.5492 14.4999 23.9499 15.0499 25.0499 15.9501L28.2509 12.75C26.3002 11.0496 23.8005 10 21.0001 10C16.6642 10 12.9316 12.4732 11.1367 16.0958L14.8272 18.9513Z" fill="#EA4335"/>
<path d="M24.7032 26.5119C23.704 27.1563 22.4354 27.5001 20.9999 27.5001C19.6387 27.5029 18.3111 27.0774 17.2051 26.284C16.0991 25.4905 15.2707 24.3693 14.8371 23.079L11.1338 25.8904C12.0424 27.7295 13.4486 29.2769 15.1926 30.3569C16.9366 31.4369 18.9486 32.0061 20.9999 32C23.6885 32 26.257 31.0439 28.181 29.25L24.7041 26.5119H24.7032Z" fill="#34A853"/>
<path d="M28.1812 29.25C30.1932 27.3727 31.4995 24.5787 31.4995 21C31.4995 20.3492 31.3996 19.6498 31.2502 18.9999H21V23.2505H26.8997C26.6091 24.6795 25.8272 25.786 24.7043 26.512L28.1812 29.25Z" fill="#4A90E2"/>
<path d="M14.8374 23.079C14.6131 22.4088 14.4992 21.7067 14.5 21C14.5 20.2832 14.6146 19.5947 14.8273 18.9512L11.1368 16.0958C10.3818 17.62 9.99259 19.2991 10.0001 21C10.0001 22.76 10.408 24.4192 11.134 25.8904L14.8374 23.079Z" fill="#FBBC05"/>
</g>
<rect opacity="0.14" x="0.5" y="0.5" width="41" height="41" rx="20.5" fill="white" stroke="#332218"/>
<defs>
<clipPath id="clip0_8879_2176">
<rect width="22" height="22" fill="white" transform="translate(10 10)"/>
</clipPath>
<clipPath id="clip1_8879_2176">
<rect width="22" height="22" fill="white" transform="translate(10 10)"/>
</clipPath>
</defs>
</svg>
